[
  {
    "ParameterKey": "VpcCidr",
    "ParameterValue": "0.0.0.0/0"
  },
  {
    "ParameterKey": "PrivateSubnets",
    "ParameterValue": "subnet-0f55015915b054537,subnet-0b9f126f44ababee0,subnet-0c3245b25da5e75bf"
  },
  {
    "ParameterKey": "VpcId",
    "ParameterValue": "vpc-02502c5722aa6ebc3"
  }
]
